  _____                       __  .__                
_/ ____\______   ____   _____/  |_|__| _____   ____  
\   __\\_  __ \_/ __ \_/ __ \   __\  |/     \_/ __ \ 
 |  |   |  | \/\  ___/\  ___/|  | |  |  Y Y  \  ___/ 
 |__|   |__|    \___  >\___  >__| |__|__|_|  /\___  >
                    \/     \/              \/     \/ 